%!PS-Adobe-3.0 EPSF-3.0
%%BoundingBox: 0 0 814 572
%%LanguageLevel: 2
%%Creator: OriginLab Corporation
%%Title: (C:\uni\Daten\Neuer Ordner\Eos_diff.eps)
%%CreationDate: Thu Jun 06 15:11:56 2019
%%EndComments

/OriginLab::PSL1 128 dict dup begin def
/Save0 save def
%%BeginResource: procset OriginLab::PSL1
/wd{1 index where{pop pop pop}{bind def}ifelse}bind def
/setcmykcolor{1 sub 4 1 roll 3{3 index add neg dup 0 lt{pop 0}if 3 1 roll}repeat setrgbcolor pop}wd
/selectfont{dup type/arraytype eq{exch findfont exch makefont setfont}{exch findfont exch scalefont setfont}ifelse}wd
/xshow{1 index length 0 le{}{currentpoint exch 3 index length 1 sub 0 exch 1 exch{dup 5 index exch 1 getinterval show 3 index exch get add 2 copy exch moveto}for pop pop}ifelse pop pop}wd
/glyphshow{matrix currentmatrix exch currentfont dup/FontMatrix get concat currentpoint translate
 dup/Metrics get 2 index get 0 4 2 roll gsave/CharProcs get exch 2 copy known not{pop/.notdef}if
 get exec fill grestore moveto setmatrix}wd
/grayimage/image load def/rgbtogray{cvx exec dup length 3 idiv 1 sub 0 exch 1 exch{dup 3 mul dup 3 index exch get 255 div .3 mul exch
 1 add dup 4 index exch get 255 div .59 mul exch 1 add 4 index exch get 255 div .11 mul add add
 255 mul dup 255 gt{255}if round cvi 2 index 3 1 roll put}for dup length 3 idiv 0 exch getinterval}bind def
/colorimage{0 setgray pop pop cvlit/rgbtogray cvx 2 packedarray cvx grayimage}wd
/bd{bind def}bind def/ld{load def}bd/ed{exch def}bd/xd{cvx def}bd
/np/newpath ld/a/arc ld/m/moveto ld/l/lineto ld/c/curveto ld/rm/rmoveto ld/rl/rlineto ld/rc/rcurveto ld/cp/closepath ld/cpt/currentpoint ld
/tr/translate ld/sc/scale ld/ro/rotate ld/t/transform ld/it/itransform ld/dt/dtransform ld/idt/idtransform ld
/mtx/matrix ld/cmtx/currentmatrix ld/dmtx/defaultmatrix ld/smtx/setmatrix ld/catmtx/concatmatrix ld
/sw/setlinewidth ld/scap/setlinecap ld/sj/setlinejoin ld/sm/setmiterlimit ld/sd/setdash ld/rgb/setrgbcolor ld/crgb/currentrgbcolor ld/cmyk/setcmykcolor ld/gs/gsave ld/gr/grestore ld
/st/stroke ld/fi/fill ld/eofi/eofill ld/cl/clip ld/eocl/eoclip ld
/df/definefont ld/ff/findfont ld/sf/setfont ld/scf/scalefont ld/self/selectfont ld/cf/currentfont ld
/s/show ld/xs/xshow ld/gls/glyphshow ld/xgls{cpt 3 1 roll add exch 3 -1 roll gls m}bd
/cd/currentdict ld/i/index ld
/DrawBox{4 2 roll m 1 index 0 rl 0 exch rl neg 0 rl cp}bd
/plus.re { 6 { 3 index } repeat moveto 0 exch rlineto 0 rlineto pop pop neg 0 exch rlineto pop lineto closepath } def
/DrawBcc{4 2 roll m 2 copy 0 lt exch 0 lt xor{dup 0 exch rl exch 0 rl neg 0 exch rl}{exch dup 0 rl exch 0 exch rl neg 0 rl}ifelse cp}bd
/rectline{dup type/arraytype eq{dup length 0 exch 4 exch 4 sub{0 1 3{3 copy add get 4 1 roll pop}for pop 5 1 roll DrawBox}for pop}{DrawBox}ifelse}bd
/rectpath{dup type/arraytype eq{dup length 0 exch 4 exch 4 sub{0 1 3{3 copy add get 4 1 roll pop}for pop 5 1 roll DrawBcc}for pop}{DrawBcc}ifelse}bd
/pathproc{[{/m cvx}{/l cvx}{/c cvx}{/cp cvx}pathforall]cvx}bd
/L1img/image ld/L1idx[{0}
 {dup 7 and 3 1 roll -3 bitshift get exch 7 sub 1 mul bitshift  1 and}bind 1 index dup
 {dup 1 and 3 1 roll -1 bitshift get exch 1 sub 4 mul bitshift 15 and}bind 1 index dup dup
 {get}bind]def
/image{dup type/dicttype eq {dup/ImgCS get 0 get/Indexed eq}{false}ifelse
 {begin Width Height 8 ImageMatrix {rgb_string rgb_lookup
 cd/DataSource get dup type/filetype eq
 {mystring readstring pop}{exec}ifelse
 dup length 0 ne
 {L1idx BitsPerComponent get 0 1 Width 1 sub
 {3 copy exch exec exch 3 mul exch
 3 mul dup 5 index exch get exch 1 add dup 6 index exch get exch 1 add 6 index exch get
 7 index exch 4 index 2 add exch put 6 index exch 3 index 1 add exch put 5 index exch 2 index exch put pop
 }for pop pop pop }{pop pop pop ()}ifelse }false 3 colorimage end} {dup type/dicttype eq
 {{dup mark exch L1img pop pop}stopped{cleartomark begin Width Height BitsPerComponent ImageMatrix
 {cd/DataSource get dup type/filetype eq {mystring readstring pop}{exec}ifelse
 }false 3 colorimage end} if}{L1img}ifelse}ifelse
 }bd
/L1imgmask/imagemask ld/imagemask{dup type/dicttype eq
 {{dup mark exch L1imgmask pop pop}stopped {cleartomark begin Width Height polarityflag ImageMatrix
 {cd/DataSource get dup type/filetype eq {mystring readstring pop}{exec}ifelse
 }L1imgmask end}if}{L1imgmask}ifelse
 }bd
% Gradient function
/GradientStep 1 150 div def
/GradientStartRGB { /R1 exch def /G1 exch def /B1 exch def } def
/GradientEndRGB { /R2 exch def /G2 exch def /B2 exch def
/GradientSteps GradientLength GradientStep div def
/GradientRStep R2 R1 sub GradientSteps div def
/GradientGStep G2 G1 sub GradientSteps div def
/GradientBStep B2 B1 sub GradientSteps div def
} def
/GradientStepRGB { /R1 R1 GradientRStep add def
/G1 G1 GradientGStep add def
/B1 B1 GradientBStep add def
R1 G1 B1 setrgbcolor
} def
%%EndResource
/rectclip{np rectpath clip np}wd
/rectfill{gs np rectpath fi gr}wd
/rectstroke{gs np dup type/arraytype eq{dup length 6 eq}{false}ifelse{1 index type/arraytype eq{exch}{5 1 roll}ifelse rectline concat st}{rectline st}ifelse gr}wd
%%BeginResource: procset OriginLab::Image
/OriginLab::Image 32 dict dup begin
/BinProc{[currentfile mystring /readstring cvx /pop cvx] cvx bind}bd
/HexProc{[currentfile mystring /readhexstring cvx /pop cvx] cvx bind}bd
/Ascii85Proc{currentfile /ASCII85Decode filter}bd
/LZWA85{currentfile /ASCII85Decode filter /LZWDecode filter}bd
/ImgProcArray[/BinProc /HexProc /Ascii85Proc /LZWA85]def
/ImgDict{/ImgDict 16 dict def ImgDict dup begin /ImageType 1 def /MultipleDataSource false def end}bd
/L2Dec{{[1 0]}{[0 1]}ifelse}bd
/BegImg{ /Img_sv save def
 /ImgDir ed ImgProcArray exch get /ImgProc exch ld
 dup /polarityflag ed L2Dec /polarity ed /smoothflag ed
 tr /dx 2 index def /dy 1 index abs def sc
 string /mystring ed /bpc ed /ih ed /iw ed
 }bd
/EndImg {Img_sv restore}bd
/DoXImg{ /rgb_lookup ed /hival ed ImgDict dup begin
 [/Indexed /DeviceRGB hival rgb_lookup] /L1img where{pop/ImgCS ed}{setcolorspace}ifelse
 /rgb_string iw 3 mul string def
 /Width iw def
 /Height ih def
 /Decode [0 1 bpc{2 mul}repeat 1 sub] def
 /ImageMatrix
  ImgDir 0 eq{[iw 0 0 ih 0 0]}if
  ImgDir 1 eq{[iw neg 0 0 ih iw 0]}if
  ImgDir 2 eq{[iw 0 0 ih neg 0 ih]}if
  ImgDir 3 eq{[iw neg 0 0 ih neg iw ih]}if
  def
 /DataSource ImgProc def
 /BitsPerComponent bpc def
 /Interpolate smoothflag def
 end image}bd
/DoImg{ ImgDict dup begin
 [/DeviceRGB] /L1img where{pop/ImgCS ed}{setcolorspace}ifelse
 /rgb_string iw 3 mul string def
 /Width iw def
 /Height ih def
 /Decode [0 1 0 1 0 1] def
 /ImageMatrix
  ImgDir 0 eq{[iw 0 0 ih 0 0]}if
  ImgDir 1 eq{[iw neg 0 0 ih iw 0]}if
  ImgDir 2 eq{[iw 0 0 ih neg 0 ih]}if
  ImgDir 3 eq{[iw neg 0 0 ih neg iw ih]}if
  def
 /DataSource ImgProc def
 /BitsPerComponent 8 def
 /Interpolate smoothflag def
 end image}bd
end def
%%EndResource
/initmtx mtx cmtx def
%%BeginFont: /MC1_Arial
12 dict begin
/FontInfo 8 dict dup begin
/ItalicAngle 0 def
/UnderlinePosition -217.00 def
/UnderlineThickness 150.00 def
/StrikeoutPosition 530.00 def
/StrikeoutThickness 102.00 def
/isFixedPitch false def
end readonly def
/FontName /MC1_Arial def
/FontType 3 def
/FontMatrix [1 2048 div 0 0 1 2048 div 0 0] def
/FontBBox [-1361 -665 4096 2060] def
/Encoding 256 array def 0 1 255{Encoding exch/.notdef put}for
Encoding 32/s32 put
Encoding 48/s48 put
Encoding 49/s49 put
Encoding 50/s50 put
Encoding 52/s52 put
Encoding 54/s54 put
Encoding 56/s56 put
Encoding 60/s60 put
Encoding 61/s61 put
Encoding 68/s68 put
Encoding 77/s77 put
Encoding 83/s83 put
Encoding 84/s84 put
Encoding 85/s85 put
Encoding 86/s86 put
Encoding 91/s91 put
Encoding 93/s93 put
Encoding 97/s97 put
Encoding 98/s98 put
Encoding 99/s99 put
Encoding 100/s100 put
Encoding 101/s101 put
Encoding 103/s103 put
Encoding 105/s105 put
Encoding 108/s108 put
Encoding 110/s110 put
Encoding 111/s111 put
Encoding 112/s112 put
Encoding 114/s114 put
Encoding 115/s115 put
Encoding 116/s116 put
Encoding 119/s119 put
Encoding 120/s120 put
Encoding 121/s121 put
/BoundingBoxes 35 dict def
BoundingBoxes begin
/s32 [0 -434 569 1854] def
/s48 [0 -434 1139 1854] def
/s49 [0 -434 1139 1854] def
/s50 [0 -434 1139 1854] def
/s52 [0 -434 1139 1854] def
/s54 [0 -434 1139 1854] def
/s56 [0 -434 1139 1854] def
/s60 [0 -434 1196 1854] def
/s61 [0 -434 1196 1854] def
/s68 [0 -434 1479 1854] def
/s77 [0 -434 1706 1854] def
/s83 [0 -434 1366 1854] def
/s84 [0 -434 1251 1854] def
/s85 [0 -434 1479 1854] def
/s86 [0 -434 1366 1854] def
/s91 [0 -434 569 1854] def
/s93 [0 -434 569 1854] def
/s97 [0 -434 1139 1854] def
/s98 [0 -434 1139 1854] def
/s99 [0 -434 1024 1854] def
/s100 [0 -434 1139 1854] def
/s101 [0 -434 1139 1854] def
/s103 [0 -434 1139 1854] def
/s105 [0 -434 455 1854] def
/s108 [0 -434 455 1854] def
/s110 [0 -434 1139 1854] def
/s111 [0 -434 1139 1854] def
/s112 [0 -434 1139 1854] def
/s114 [0 -434 682 1854] def
/s115 [0 -434 1024 1854] def
/s116 [0 -434 569 1854] def
/s119 [0 -434 1479 1854] def
/s120 [0 -434 1024 1854] def
/s121 [0 -434 1024 1854] def
end
/Metrics 35 dict def
 Metrics begin
/s32 569 def
/s48 1139 def
/s49 1139 def
/s50 1139 def
/s52 1139 def
/s54 1139 def
/s56 1139 def
/s60 1196 def
/s61 1196 def
/s68 1479 def
/s77 1706 def
/s83 1366 def
/s84 1251 def
/s85 1479 def
/s86 1366 def
/s91 569 def
/s93 569 def
/s97 1139 def
/s98 1139 def
/s99 1024 def
/s100 1139 def
/s101 1139 def
/s103 1139 def
/s105 455 def
/s108 455 def
/s110 1139 def
/s111 1139 def
/s112 1139 def
/s114 682 def
/s115 1024 def
/s116 569 def
/s119 1479 def
/s120 1024 def
/s121 1024 def
end
/CharProcs 35 dict def
CharProcs begin
/.notdef {} def
/s48 {
85 723 m
85 896.33 102.83 1035.83 138.5 1141.5 c
174.17 1247.17 227.17 1328.67 297.5 1386 c
367.83 1443.33 456.33 1472 563 1472 c
641.67 1472 710.67 1456.17 770 1424.5 c
829.33 1392.83 878.33 1347.17 917 1287.5 c
955.67 1227.83 986 1155.17 1008 1069.5 c
1030 983.83 1041 868.33 1041 723 c
1041 551 1023.33 412.17 988 306.5 c
952.67 200.83 899.83 119.17 829.5 61.5 c
759.17 3.83 670.33 -25 563 -25 c
421.67 -25 310.67 25.67 230 127 c
133.33 249 85 447.67 85 723 c
closepath 270 723 m
270 482.33 298.17 322.17 354.5 242.5 c
410.83 162.83 480.33 123 563 123 c
645.67 123 715.17 163 771.5 243 c
827.83 323 856 483 856 723 c
856 964.33 827.83 1124.67 771.5 1204 c
715.17 1283.33 645 1323 561 1323 c
478.33 1323 412.33 1288 363 1218 c
301 1128.67 270 963.67 270 723 c
closepath } bind def
/s49 {
763 0 m
583 0 763 0 583 0 c
583 1147 583 0 583 1147 c
539.67 1105.67 482.83 1064.33 412.5 1023 c
342.17 981.67 279 950.67 223 930 c
223 1104 223 930 223 1104 c
323.67 1151.33 411.67 1208.67 487 1276 c
562.33 1343.33 615.67 1408.67 647 1472 c
763 1472 647 1472 763 1472 c
763 0 763 1472 763 0 c
closepath } bind def
/s50 {
1031 173 m
1031 0 1031 173 1031 0 c
62 0 1031 0 62 0 c
60.67 43.33 67.67 85 83 125 c
107.67 191 147.17 256 201.5 320 c
255.83 384 334.33 458 437 542 c
596.33 672.67 704 776.17 760 852.5 c
816 928.83 844 1001 844 1069 c
844 1140.33 818.5 1200.5 767.5 1249.5 c
716.5 1298.5 650 1323 568 1323 c
481.33 1323 412 1297 360 1245 c
308 1193 281.67 1121 281 1029 c
96 1048 281 1029 96 1048 c
108.67 1186 156.33 1291.17 239 1363.5 c
321.67 1435.83 432.67 1472 572 1472 c
712.67 1472 824 1433 906 1355 c
988 1277 1029 1180.33 1029 1065 c
1029 1006.33 1017 948.67 993 892 c
969 835.33 929.17 775.67 873.5 713 c
817.83 650.33 725.33 564.33 596 455 c
488 364.33 418.67 302.83 388 270.5 c
357.33 238.17 332 205.67 312 173 c
1031 173 312 173 1031 173 c
closepath } bind def
/s52 {
662 0 m
662 351 662 0 662 351 c
26 351 662 351 26 351 c
26 516 26 351 26 516 c
695 1466 26 516 695 1466 c
842 1466 695 1466 842 1466 c
842 516 842 1466 842 516 c
1040 516 842 516 1040 516 c
1040 351 1040 516 1040 351 c
842 351 1040 351 842 351 c
842 0 842 351 842 0 c
662 0 842 0 662 0 c
closepath 662 516 m
662 1177 662 516 662 1177 c
203 516 662 1177 203 516 c
662 516 203 516 662 516 c
closepath } bind def
/s54 {
1019 1107 m
840 1093 1019 1107 840 1093 c
824 1163.67 801.33 1215 772 1247 c
723.33 1298.33 663.33 1324 592 1324 c
534.67 1324 484.33 1308 441 1276 c
384.33 1234.67 339.67 1174.33 307 1095 c
274.33 1015.67 257.33 902.67 256 756 c
299.33 822 352.33 871 415 903 c
477.67 935 543.33 951 612 951 c
732 951 834.17 906.83 918.5 818.5 c
1002.83 730.17 1045 616 1045 476 c
1045 384 1025.17 298.5 985.5 219.5 c
945.83 140.5 891.33 80 822 38 c
752.67 -4 674 -25 586 -25 c
436 -25 313.67 30.17 219 140.5 c
124.33 250.83 77 432.67 77 686 c
77 969.33 129.33 1175.33 234 1304 c
325.33 1416 448.33 1472 603 1472 c
718.33 1472 812.83 1439.67 886.5 1375 c
960.17 1310.33 1004.33 1221 1019 1107 c
closepath 284 475 m
284 413 297.17 353.67 323.5 297 c
349.83 240.33 386.67 197.17 434 167.5 c
481.33 137.83 531 123 583 123 c
659 123 724.33 153.67 779 215 c
833.67 276.33 861 359.67 861 465 c
861 566.33 834 646.17 780 704.5 c
726 762.83 658 792 576 792 c
494.67 792 425.67 762.83 369 704.5 c
312.33 646.17 284 569.67 284 475 c
closepath } bind def
/s56 {
362 795 m
287.33 822.33 232 861.33 196 912 c
160 962.67 142 1023.33 142 1094 c
142 1200.67 180.33 1290.33 257 1363 c
333.67 1435.67 435.67 1472 563 1472 c
691 1472 794 1434.83 872 1360.5 c
950 1286.17 989 1195.67 989 1089 c
989 1021 971.17 961.83 935.5 911.5 c
899.83 861.17 845.67 822.33 773 795 c
863 765.67 931.5 718.33 978.5 653 c
1025.5 587.67 1049 509.67 1049 419 c
1049 293.67 1004.67 188.33 916 103 c
827.33 17.67 710.67 -25 566 -25 c
421.33 -25 304.67 17.83 216 103.5 c
127.33 189.17 83 296 83 424 c
83 519.33 107.17 599.17 155.5 663.5 c
203.83 727.83 272.67 771.67 362 795 c
closepath 326 1100 m
326 1030.67 348.33 974 393 930 c
437.67 886 495.67 864 567 864 c
636.33 864 693.17 885.83 737.5 929.5 c
781.83 973.17 804 1026.67 804 1090 c
804 1156 781.17 1211.5 735.5 1256.5 c
689.83 1301.5 633 1324 565 1324 c
496.33 1324 439.33 1302 394 1258 c
348.67 1214 326 1161.33 326 1100 c
closepath 268 423 m
268 371.67 280.17 322 304.5 274 c
328.83 226 365 188.83 413 162.5 c
461 136.17 512.67 123 568 123 c
654 123 725 150.67 781 206 c
837 261.33 865 331.67 865 417 c
865 503.67 836.17 575.33 778.5 632 c
720.83 688.67 648.67 717 562 717 c
477.33 717 407.17 689 351.5 633 c
295.83 577 268 507 268 423 c
closepath } bind def
/s60 {
112 641 m
112 809 112 641 112 809 c
1083 1219 112 809 1083 1219 c
1083 1040 1083 1219 1083 1040 c
313 724 1083 1040 313 724 c
1083 405 313 724 1083 405 c
1083 226 1083 405 1083 226 c
112 641 1083 226 112 641 c
closepath } bind def
/s61 {
1082 862 m
114 862 1082 862 114 862 c
114 1030 114 862 114 1030 c
1082 1030 114 1030 1082 1030 c
1082 862 1082 1030 1082 862 c
closepath 1082 417 m
114 417 1082 417 114 417 c
114 585 114 417 114 585 c
1082 585 114 585 1082 585 c
1082 417 1082 585 1082 417 c
closepath } bind def
/s68 {
158 0 m
158 1466 158 0 158 1466 c
663 1466 158 1466 663 1466 c
777 1466 864 1459 924 1445 c
1008 1425.67 1079.67 1390.67 1139 1340 c
1216.33 1274.67 1274.17 1191.17 1312.5 1089.5 c
1350.83 987.83 1370 871.67 1370 741 c
1370 629.67 1357 531 1331 445 c
1305 359 1271.67 287.83 1231 231.5 c
1190.33 175.17 1145.83 130.83 1097.5 98.5 c
1049.17 66.17 990.83 41.67 922.5 25 c
854.17 8.33 775.67 0 687 0 c
158 0 687 0 158 0 c
closepath 352 173 m
665 173 352 173 665 173 c
761.67 173 837.5 182 892.5 200 c
947.5 218 991.33 243.33 1024 276 c
1070 322 1105.83 383.83 1131.5 461.5 c
1157.17 539.17 1170 633.33 1170 744 c
1170 897.33 1144.83 1015.17 1094.5 1097.5 c
1044.17 1179.83 983 1235 911 1263 c
859 1283 775.33 1293 660 1293 c
352 1293 660 1293 352 1293 c
352 173 352 1293 352 173 c
closepath } bind def
/s77 {
152 0 m
152 1466 152 0 152 1466 c
444 1466 152 1466 444 1466 c
791 428 444 1466 791 428 c
823 331.33 846.33 259 861 211 c
877.67 264.33 903.67 342.67 939 446 c
1290 1466 939 446 1290 1466 c
1551 1466 1290 1466 1551 1466 c
1551 0 1551 1466 1551 0 c
1364 0 1551 0 1364 0 c
1364 1227 1364 0 1364 1227 c
938 0 1364 1227 938 0 c
763 0 938 0 763 0 c
339 1248 763 0 339 1248 c
339 0 339 1248 339 0 c
152 0 339 0 152 0 c
closepath } bind def
/s83 {
92 471 m
275 487 92 471 275 487 c
283.67 413.67 303.83 353.5 335.5 306.5 c
367.17 259.5 416.33 221.5 483 192.5 c
549.67 163.5 624.67 149 708 149 c
782 149 847.33 160 904 182 c
960.67 204 1002.83 234.17 1030.5 272.5 c
1058.17 310.83 1072 352.67 1072 398 c
1072 444 1058.67 484.17 1032 518.5 c
1005.33 552.83 961.33 581.67 900 605 c
860.67 620.33 773.67 644.17 639 676.5 c
504.33 708.83 410 739.33 356 768 c
286 804.67 233.83 850.17 199.5 904.5 c
165.17 958.83 148 1019.67 148 1087 c
148 1161 169 1230.17 211 1294.5 c
253 1358.83 314.33 1407.67 395 1441 c
475.67 1474.33 565.33 1491 664 1491 c
772.67 1491 868.5 1473.5 951.5 1438.5 c
1034.5 1403.5 1098.33 1352 1143 1284 c
1187.67 1216 1211.67 1139 1215 1053 c
1029 1039 1215 1053 1029 1039 c
1019 1131.67 985.17 1201.67 927.5 1249 c
869.83 1296.33 784.67 1320 672 1320 c
554.67 1320 469.17 1298.5 415.5 1255.5 c
361.83 1212.5 335 1160.67 335 1100 c
335 1047.33 354 1004 392 970 c
429.33 936 526.83 901.17 684.5 865.5 c
842.17 829.83 950.33 798.67 1009 772 c
1094.33 732.67 1157.33 682.83 1198 622.5 c
1238.67 562.17 1259 492.67 1259 414 c
1259 336 1236.67 262.5 1192 193.5 c
1147.33 124.5 1083.17 70.83 999.5 32.5 c
915.83 -5.83 821.67 -25 717 -25 c
584.33 -25 473.17 -5.67 383.5 33 c
293.83 71.67 223.5 129.83 172.5 207.5 c
121.5 285.17 94.67 373 92 471 c
closepath } bind def
/s84 {
531 0 m
531 1293 531 0 531 1293 c
48 1293 531 1293 48 1293 c
48 1466 48 1293 48 1466 c
1210 1466 48 1466 1210 1466 c
1210 1293 1210 1466 1210 1293 c
725 1293 1210 1293 725 1293 c
725 0 725 1293 725 0 c
531 0 725 0 531 0 c
closepath } bind def
/s85 {
1120 1466 m
1314 1466 1120 1466 1314 1466 c
1314 619 1314 1466 1314 619 c
1314 471.67 1297.33 354.67 1264 268 c
1230.67 181.33 1170.5 110.83 1083.5 56.5 c
996.5 2.17 882.33 -25 741 -25 c
603.67 -25 491.33 -1.33 404 46 c
316.67 93.33 254.33 161.83 217 251.5 c
179.67 341.17 161 463.67 161 619 c
161 1466 161 619 161 1466 c
355 1466 161 1466 355 1466 c
355 620 355 1466 355 620 c
355 492.67 366.83 398.83 390.5 338.5 c
414.17 278.17 454.83 231.67 512.5 199 c
570.17 166.33 640.67 150 724 150 c
866.67 150 968.33 182.33 1029 247 c
1089.67 311.67 1120 436 1120 620 c
1120 1466 1120 620 1120 1466 c
closepath } bind def
/s86 {
577 0 m
9 1466 577 0 9 1466 c
219 1466 9 1466 219 1466 c
600 401 219 1466 600 401 c
630.67 315.67 656.33 235.67 677 161 c
699.67 241 726 321 756 401 c
1152 1466 756 401 1152 1466 c
1350 1466 1152 1466 1350 1466 c
776 0 1350 1466 776 0 c
577 0 776 0 577 0 c
closepath } bind def
/s91 {
139 -407 m
139 1466 139 -407 139 1466 c
536 1466 139 1466 536 1466 c
536 1317 536 1466 536 1317 c
319 1317 536 1317 319 1317 c
319 -258 319 1317 319 -258 c
536 -258 319 -258 536 -258 c
536 -407 536 -258 536 -407 c
139 -407 536 -407 139 -407 c
closepath } bind def
/s93 {
436 -407 m
39 -407 436 -407 39 -407 c
39 -258 39 -407 39 -258 c
256 -258 39 -258 256 -258 c
256 1317 256 -258 256 1317 c
39 1317 256 1317 39 1317 c
39 1466 39 1317 39 1466 c
436 1466 39 1466 436 1466 c
436 -407 436 1466 436 -407 c
closepath } bind def
/s97 {
828 131 m
761.33 74.33 697.17 34.33 635.5 11 c
573.83 -12.33 507.67 -24 437 -24 c
320.33 -24 230.67 4.5 168 61.5 c
105.33 118.5 74 191.33 74 280 c
74 332 85.83 379.5 109.5 422.5 c
133.17 465.5 164.17 500 202.5 526 c
240.83 552 284 571.67 332 585 c
367.33 594.33 420.67 603.33 492 612 c
637.33 629.33 744.33 650 813 674 c
813.67 698.67 814 714.33 814 721 c
814 794.33 797 846 763 876 c
717 916.67 648.67 937 558 937 c
473.33 937 410.83 922.17 370.5 892.5 c
330.17 862.83 300.33 810.33 281 735 c
105 759 281 735 105 759 c
121 834.33 147.33 895.17 184 941.5 c
220.67 987.83 273.67 1023.5 343 1048.5 c
412.33 1073.5 492.67 1086 584 1086 c
674.67 1086 748.33 1075.33 805 1054 c
861.67 1032.67 903.33 1005.83 930 973.5 c
956.67 941.17 975.33 900.33 986 851 c
992 820.33 995 765 995 685 c
995 445 995 685 995 445 c
995 277.67 998.83 171.83 1006.5 127.5 c
1014.17 83.17 1029.33 40.67 1052 0 c
864 0 1052 0 864 0 c
845.33 37.33 833.33 81 828 131 c
closepath 813 533 m
747.67 506.33 649.67 483.67 519 465 c
445 454.33 392.67 442.33 362 429 c
331.33 415.67 307.67 396.17 291 370.5 c
274.33 344.83 266 316.33 266 285 c
266 237 284.17 197 320.5 165 c
356.83 133 410 117 480 117 c
549.33 117 611 132.17 665 162.5 c
719 192.83 758.67 234.33 784 287 c
803.33 327.67 813 387.67 813 467 c
813 533 813 467 813 533 c
closepath } bind def
/s98 {
301 0 m
134 0 301 0 134 0 c
134 1466 134 0 134 1466 c
314 1466 134 1466 314 1466 c
314 943 314 1466 314 943 c
390 1038.33 487 1086 605 1086 c
670.33 1086 732.17 1072.83 790.5 1046.5 c
848.83 1020.17 896.83 983.17 934.5 935.5 c
972.17 887.83 1001.67 830.33 1023 763 c
1044.33 695.67 1055 623.67 1055 547 c
1055 365 1010 224.33 920 125 c
830 25.67 722 -24 596 -24 c
470.67 -24 372.33 28.33 301 133 c
301 0 301 133 301 0 c
closepath 299 539 m
299 411.67 316.33 319.67 351 263 c
407.67 170.33 484.33 124 581 124 c
659.67 124 727.67 158.17 785 226.5 c
842.33 294.83 871 396.67 871 532 c
871 670.67 843.5 773 788.5 839 c
733.5 905 667 938 589 938 c
510.33 938 442.33 903.83 385 835.5 c
327.67 767.17 299 668.33 299 539 c
closepath } bind def
/s99 {
828 389 m
1005 366 828 389 1005 366 c
985.67 244 936.17 148.5 856.5 79.5 c
776.83 10.5 679 -24 563 -24 c
417.67 -24 300.83 23.5 212.5 118.5 c
124.17 213.5 80 349.67 80 527 c
80 641.67 99 742 137 828 c
175 914 232.83 978.5 310.5 1021.5 c
388.17 1064.5 472.67 1086 564 1086 c
679.33 1086 773.67 1056.83 847 998.5 c
920.33 940.17 967.33 857.33 988 750 c
813 723 988 750 813 723 c
796.33 794.33 766.83 848 724.5 884 c
682.17 920 631 938 571 938 c
480.33 938 406.67 905.5 350 840.5 c
293.33 775.5 265 672.67 265 532 c
265 389.33 292.33 285.67 347 221 c
401.67 156.33 473 124 561 124 c
631.67 124 690.67 145.67 738 189 c
785.33 232.33 815.33 299 828 389 c
closepath } bind def
/s100 {
824 0 m
824 134 824 0 824 134 c
756.67 28.67 657.67 -24 527 -24 c
442.33 -24 364.5 -0.67 293.5 46 c
222.5 92.67 167.5 157.83 128.5 241.5 c
89.5 325.17 70 421.33 70 530 c
70 636 87.67 732.17 123 818.5 c
158.33 904.83 211.33 971 282 1017 c
352.67 1063 431.67 1086 519 1086 c
583 1086 640 1072.5 690 1045.5 c
740 1018.5 780.67 983.33 812 940 c
812 1466 812 940 812 1466 c
991 1466 812 1466 991 1466 c
991 0 991 1466 991 0 c
824 0 991 0 824 0 c
closepath 255 530 m
255 394 283.67 292.33 341 225 c
398.33 157.67 466 124 544 124 c
622.67 124 689.5 156.17 744.5 220.5 c
799.5 284.83 827 383 827 515 c
827 660.33 799 767 743 835 c
687 903 618 937 536 937 c
456 937 389.17 904.33 335.5 839 c
281.83 773.67 255 670.67 255 530 c
closepath } bind def
/s101 {
862 342 m
1048 319 862 342 1048 319 c
1018.67 210.33 964.33 126 885 66 c
805.67 6 704.33 -24 581 -24 c
425.67 -24 302.5 23.83 211.5 119.5 c
120.5 215.17 75 349.33 75 522 c
75 700.67 121 839.33 213 938 c
305 1036.67 424.33 1086 571 1086 c
713 1086 829 1037.67 919 941 c
1009 844.33 1054 708.33 1054 533 c
1054 522.33 1053.67 506.33 1053 485 c
261 485 1053 485 261 485 c
267.67 368.33 300.67 279 360 217 c
419.33 155 493.33 124 582 124 c
648 124 704.33 141.33 751 176 c
797.67 210.67 834.67 266 862 342 c
closepath 271 633 m
864 633 271 633 864 633 c
856 722.33 833.33 789.33 796 834 c
738.67 903.33 664.33 938 573 938 c
490.33 938 420.83 910.33 364.5 855 c
308.17 799.67 277 725.67 271 633 c
closepath } bind def
/s103 {
102 -88 m
277 -114 102 -88 277 -114 c
284.33 -168 304.67 -207.33 338 -232 c
382.67 -265.33 443.67 -282 521 -282 c
604.33 -282 668.67 -265.33 714 -232 c
759.33 -198.67 790 -152 806 -92 c
815.33 -55.33 819.67 21.67 819 139 c
740.33 46.33 642.33 0 525 0 c
379 0 266 52.67 186 158 c
106 263.33 66 389.67 66 537 c
66 638.33 84.33 731.83 121 817.5 c
157.67 903.17 210.83 969.33 280.5 1016 c
350.17 1062.67 432 1086 526 1086 c
651.33 1086 754.67 1035.33 836 934 c
836 1062 836 934 836 1062 c
1002 1062 836 1062 1002 1062 c
1002 144 1002 1062 1002 144 c
1002 -21.33 985.17 -138.5 951.5 -207.5 c
917.83 -276.5 864.5 -331 791.5 -371 c
718.5 -411 628.67 -431 522 -431 c
395.33 -431 293 -402.5 215 -345.5 c
137 -288.5 99.33 -202.67 102 -88 c
closepath 251 550 m
251 410.67 278.67 309 334 245 c
389.33 181 458.67 149 542 149 c
624.67 149 694 180.83 750 244.5 c
806 308.17 834 408 834 544 c
834 674 805.17 772 747.5 838 c
689.83 904 620.33 937 539 937 c
459 937 391 904.5 335 839.5 c
279 774.5 251 678 251 550 c
closepath } bind def
/s105 {
136 1259 m
136 1466 136 1259 136 1466 c
316 1466 136 1466 316 1466 c
316 1259 316 1466 316 1259 c
136 1259 316 1259 136 1259 c
closepath 136 0 m
136 1062 136 0 136 1062 c
316 1062 136 1062 316 1062 c
316 0 316 1062 316 0 c
136 0 316 0 136 0 c
closepath } bind def
/s108 {
131 0 m
131 1466 131 0 131 1466 c
311 1466 131 1466 311 1466 c
311 0 311 1466 311 0 c
131 0 311 0 131 0 c
closepath } bind def
/s110 {
135 0 m
135 1062 135 0 135 1062 c
297 1062 135 1062 297 1062 c
297 911 297 1062 297 911 c
375 1027.67 487.67 1086 635 1086 c
699 1086 757.83 1074.5 811.5 1051.5 c
865.17 1028.5 905.33 998.33 932 961 c
958.67 923.67 977.33 879.33 988 828 c
994.67 794.67 998 736.33 998 653 c
998 0 998 653 998 0 c
818 0 998 0 818 0 c
818 646 818 0 818 646 c
818 719.33 811 774.17 797 810.5 c
783 846.83 758.17 875.83 722.5 897.5 c
686.83 919.17 645 930 597 930 c
520.33 930 454.17 905.67 398.5 857 c
342.83 808.33 315 716 315 580 c
315 0 315 580 315 0 c
135 0 315 0 135 0 c
closepath } bind def
/s111 {
68 531 m
68 727.67 122.67 873.33 232 968 c
323.33 1046.67 434.67 1086 566 1086 c
712 1086 831.33 1038.17 924 942.5 c
1016.67 846.83 1063 714.67 1063 546 c
1063 409.33 1042.5 301.83 1001.5 223.5 c
960.5 145.17 900.83 84.33 822.5 41 c
744.17 -2.33 658.67 -24 566 -24 c
417.33 -24 297.17 23.67 205.5 119 c
113.83 214.33 68 351.67 68 531 c
closepath 253 531 m
253 395 282.67 293.17 342 225.5 c
401.33 157.83 476 124 566 124 c
655.33 124 729.67 158 789 226 c
848.33 294 878 397.67 878 537 c
878 668.33 848.17 767.83 788.5 835.5 c
728.83 903.17 654.67 937 566 937 c
476 937 401.33 903.33 342 836 c
282.67 768.67 253 667 253 531 c
closepath } bind def
/s112 {
135 -407 m
135 1062 135 -407 135 1062 c
299 1062 135 1062 299 1062 c
299 924 299 1062 299 924 c
337.67 978 381.33 1018.5 430 1045.5 c
478.67 1072.5 537.67 1086 607 1086 c
697.67 1086 777.67 1062.67 847 1016 c
916.33 969.33 968.67 903.5 1004 818.5 c
1039.33 733.5 1057 640.33 1057 539 c
1057 430.33 1037.5 332.5 998.5 245.5 c
959.5 158.5 902.83 91.83 828.5 45.5 c
754.17 -0.83 676 -24 594 -24 c
534 -24 480.17 -11.33 432.5 14 c
384.83 39.33 345.67 71.33 315 110 c
315 -407 315 110 315 -407 c
135 -407 315 -407 135 -407 c
closepath 298 525 m
298 388.33 325.67 287.33 381 222 c
436.33 156.67 503.33 124 582 124 c
662 124 730.5 157.83 787.5 225.5 c
844.5 293.17 873 398 873 540 c
873 675.33 845.17 776.67 789.5 844 c
733.83 911.33 667.33 945 590 945 c
513.33 945 445.5 909.17 386.5 837.5 c
327.5 765.83 298 661.67 298 525 c
closepath } bind def
/s114 {
133 0 m
133 1062 133 0 133 1062 c
295 1062 133 1062 295 1062 c
295 901 295 1062 295 901 c
336.33 976.33 374.5 1026 409.5 1050 c
444.5 1074 483 1086 525 1086 c
585.67 1086 647.33 1066.67 710 1028 c
648 861 710 1028 648 861 c
604 887 560 900 516 900 c
476.67 900 441.33 888.17 410 864.5 c
378.67 840.83 356.33 808 343 766 c
323 702 313 632 313 556 c
313 0 313 556 313 0 c
133 0 313 0 133 0 c
closepath } bind def
/s115 {
63 317 m
241 345 63 317 241 345 c
251 273.67 278.83 219 324.5 181 c
370.17 143 434 124 516 124 c
598.67 124 660 140.83 700 174.5 c
740 208.17 760 247.67 760 293 c
760 333.67 742.33 365.67 707 389 c
682.33 405 621 425.33 523 450 c
391 483.33 299.5 512.17 248.5 536.5 c
197.5 560.83 158.83 594.5 132.5 637.5 c
106.17 680.5 93 728 93 780 c
93 827.33 103.83 871.17 125.5 911.5 c
147.17 951.83 176.67 985.33 214 1012 c
242 1032.67 280.17 1050.17 328.5 1064.5 c
376.83 1078.83 428.67 1086 484 1086 c
567.33 1086 640.5 1074 703.5 1050 c
766.5 1026 813 993.5 843 952.5 c
873 911.5 893.67 856.67 905 788 c
729 764 905 788 729 764 c
721 818.67 697.83 861.33 659.5 892 c
621.17 922.67 567 938 497 938 c
414.33 938 355.33 924.33 320 897 c
284.67 869.67 267 837.67 267 801 c
267 777.67 274.33 756.67 289 738 c
303.67 718.67 326.67 702.67 358 690 c
376 683.33 429 668 517 644 c
644.33 610 733.17 582.17 783.5 560.5 c
833.83 538.83 873.33 507.33 902 466 c
930.67 424.67 945 373.33 945 312 c
945 252 927.5 195.5 892.5 142.5 c
857.5 89.5 807 48.5 741 19.5 c
675 -9.5 600.33 -24 517 -24 c
379 -24 273.83 4.67 201.5 62 c
129.17 119.33 83 204.33 63 317 c
closepath } bind def
/s116 {
528 161 m
554 2 528 161 554 2 c
503.33 -8.67 458 -14 418 -14 c
352.67 -14 302 -3.67 266 17 c
230 37.67 204.67 64.83 190 98.5 c
175.33 132.17 168 203 168 311 c
168 922 168 311 168 922 c
36 922 168 922 36 922 c
36 1062 36 922 36 1062 c
168 1062 36 1062 168 1062 c
168 1325 168 1062 168 1325 c
347 1433 168 1325 347 1433 c
347 1062 347 1433 347 1062 c
528 1062 347 1062 528 1062 c
528 922 528 1062 528 922 c
347 922 528 922 347 922 c
347 301 347 922 347 301 c
347 249.67 350.17 216.67 356.5 202 c
362.83 187.33 373.17 175.67 387.5 167 c
401.83 158.33 422.33 154 449 154 c
469 154 495.33 156.33 528 161 c
closepath } bind def
/s119 {
331 0 m
6 1062 331 0 6 1062 c
192 1062 6 1062 192 1062 c
361 449 192 1062 361 449 c
424 221 361 449 424 221 c
426.67 232.33 445 305.33 479 440 c
648 1062 479 440 648 1062 c
833 1062 648 1062 833 1062 c
992 446 833 1062 992 446 c
1045 243 992 446 1045 243 c
1106 448 1045 243 1106 448 c
1288 1062 1106 448 1288 1062 c
1463 1062 1288 1062 1463 1062 c
1131 0 1463 1062 1131 0 c
944 0 1131 0 944 0 c
775 636 944 0 775 636 c
734 817 775 636 734 817 c
519 0 734 817 519 0 c
331 0 519 0 331 0 c
closepath } bind def
/s120 {
15 0 m
403 552 15 0 403 552 c
44 1062 403 552 44 1062 c
269 1062 44 1062 269 1062 c
432 813 269 1062 432 813 c
462.67 765.67 487.33 726 506 694 c
535.33 738 562.33 777 587 811 c
766 1062 587 811 766 1062 c
981 1062 766 1062 981 1062 c
614 562 981 1062 614 562 c
1009 0 614 562 1009 0 c
788 0 1009 0 788 0 c
570 330 788 0 570 330 c
512 419 570 330 512 419 c
233 0 512 419 233 0 c
15 0 233 0 15 0 c
closepath } bind def
/s121 {
127 -409 m
107 -240 127 -409 107 -240 c
146.33 -250.67 180.67 -256 210 -256 c
250 -256 282 -249.33 306 -236 c
330 -222.67 349.67 -204 365 -180 c
376.33 -162 394.67 -117.33 420 -46 c
423.33 -36 428.67 -21.33 436 -2 c
33 1062 436 -2 33 1062 c
227 1062 33 1062 227 1062 c
448 447 227 1062 448 447 c
476.67 369 502.33 287 525 201 c
545.67 283.67 570.33 364.33 599 443 c
826 1062 599 443 826 1062 c
1006 1062 826 1062 1006 1062 c
602 -18 1006 1062 602 -18 c
558.67 -134.67 525 -215 501 -259 c
469 -318.33 432.33 -361.83 391 -389.5 c
349.67 -417.17 300.33 -431 243 -431 c
208.33 -431 169.67 -423.67 127 -409 c
closepath } bind def
end
/BuildGlyph {
 exch dup /Metrics get 2 index get 0 setcharwidth
/CharProcs get exch 2 copy known not{pop/.notdef}if get exec fill}bind def
/BuildChar {
1 index /Encoding get exch get
1 index /BuildGlyph get exec
} bind def
currentdict end /MC1_Arial exch definefont pop
%%EndFont
%%BeginFont: /MC2_Arial
12 dict begin
/FontInfo 8 dict dup begin
/ItalicAngle 0 def
/UnderlinePosition -217.00 def
/UnderlineThickness 150.00 def
/StrikeoutPosition 530.00 def
/StrikeoutThickness 102.00 def
/isFixedPitch false def
end readonly def
/FontName /MC2_Arial def
/FontType 3 def
/FontMatrix [1 2048 div 0 0 1 2048 div 0 0] def
/FontBBox [-1361 -665 4096 2060] def
/Encoding 256 array def 0 1 255{Encoding exch/.notdef put}for
Encoding 32/s32 put
Encoding 47/s47 put
Encoding 51/s51 put
Encoding 77/s77 put
Encoding 80/s80 put
Encoding 86/s86 put
Encoding 91/s91 put
Encoding 93/s93 put
Encoding 101/s101 put
Encoding 102/s102 put
Encoding 109/s109 put
Encoding 114/s114 put
Encoding 115/s115 put
Encoding 117/s117 put
/BoundingBoxes 15 dict def
BoundingBoxes begin
/s32 [0 -434 569 1854] def
/s47 [0 -434 569 1854] def
/s51 [0 -434 1139 1854] def
/s77 [0 -434 1706 1854] def
/s80 [0 -434 1366 1854] def
/s86 [0 -434 1366 1854] def
/s91 [0 -434 569 1854] def
/s93 [0 -434 569 1854] def
/s101 [0 -434 1139 1854] def
/s102 [0 -434 569 1854] def
/s109 [0 -434 1706 1854] def
/s114 [0 -434 682 1854] def
/s115 [0 -434 1024 1854] def
/s117 [0 -434 1139 1854] def
end
/Metrics 15 dict def
 Metrics begin
/s32 569 def
/s47 569 def
/s51 1139 def
/s77 1706 def
/s80 1366 def
/s86 1366 def
/s91 569 def
/s93 569 def
/s101 1139 def
/s102 569 def
/s109 1706 def
/s114 682 def
/s115 1024 def
/s117 1139 def
end
/CharProcs 15 dict def
CharProcs begin
/.notdef {} def
/s47 {
0 -25 m
425 1491 0 -25 425 1491 c
569 1491 425 1491 569 1491 c
145 -25 569 1491 145 -25 c
0 -25 145 -25 0 -25 c
closepath } bind def
/s51 {
86 387 m
266 411 86 387 266 411 c
286.67 309 321.83 235.5 371.5 190.5 c
421.17 145.5 481.67 123 553 123 c
637.67 123 709.17 152.33 767.5 211 c
825.83 269.67 855 342.33 855 429 c
855 511.67 828 579.83 774 633.5 c
720 687.17 651.33 714 568 714 c
534 714 491.67 707.33 441 694 c
461 852 441 694 461 852 c
473 850.67 482.67 850 490 850 c
566.67 850 635.67 870 697 910 c
758.33 950 789 1011.67 789 1095 c
789 1161 766.67 1215.67 722 1259 c
677.33 1302.33 619.67 1324 549 1324 c
479 1324 420.67 1302 374 1258 c
327.33 1214 297.33 1148 284 1060 c
104 1092 284 1060 104 1092 c
126 1212.67 176 1306.17 254 1372.5 c
332 1438.83 429 1472 545 1472 c
625 1472 698.67 1454.83 766 1420.5 c
833.33 1386.17 884.83 1339.33 920.5 1280 c
956.17 1220.67 974 1157.67 974 1091 c
974 1027.67 957 970 923 918 c
889 866 838.67 824.67 772 794 c
858.67 774 926 732.5 974 669.5 c
1022 606.5 1046 527.67 1046 433 c
1046 305 999.33 196.5 906 107.5 c
812.67 18.5 694.67 -26 552 -26 c
423.33 -26 316.5 12.33 231.5 89 c
146.5 165.67 98 265 86 387 c
closepath } bind def
/s77 {
152 0 m
152 1466 152 0 152 1466 c
444 1466 152 1466 444 1466 c
791 428 444 1466 791 428 c
823 331.33 846.33 259 861 211 c
877.67 264.33 903.67 342.67 939 446 c
1290 1466 939 446 1290 1466 c
1551 1466 1290 1466 1551 1466 c
1551 0 1551 1466 1551 0 c
1364 0 1551 0 1364 0 c
1364 1227 1364 0 1364 1227 c
938 0 1364 1227 938 0 c
763 0 938 0 763 0 c
339 1248 763 0 339 1248 c
339 0 339 1248 339 0 c
152 0 339 0 152 0 c
closepath } bind def
/s80 {
158 0 m
158 1466 158 0 158 1466 c
711 1466 158 1466 711 1466 c
808.33 1466 882.67 1461.33 934 1452 c
1006 1440 1066.33 1417.17 1115 1383.5 c
1163.67 1349.83 1202.83 1302.67 1232.5 1242 c
1262.17 1181.33 1277 1114.67 1277 1042 c
1277 917.33 1237.33 811.83 1158 725.5 c
1078.67 639.17 935.33 596 728 596 c
352 596 728 596 352 596 c
352 0 352 596 352 0 c
158 0 352 0 158 0 c
closepath 352 769 m
731 769 352 769 731 769 c
856.33 769 945.33 792.33 998 839 c
1050.67 885.67 1077 951.33 1077 1036 c
1077 1097.33 1061.5 1149.83 1030.5 1193.5 c
999.5 1237.17 958.67 1266 908 1280 c
875.33 1288.67 815 1293 727 1293 c
352 1293 727 1293 352 1293 c
352 769 352 1293 352 769 c
closepath } bind def
/s86 {
577 0 m
9 1466 577 0 9 1466 c
219 1466 9 1466 219 1466 c
600 401 219 1466 600 401 c
630.67 315.67 656.33 235.67 677 161 c
699.67 241 726 321 756 401 c
1152 1466 756 401 1152 1466 c
1350 1466 1152 1466 1350 1466 c
776 0 1350 1466 776 0 c
577 0 776 0 577 0 c
closepath } bind def
/s91 {
139 -407 m
139 1466 139 -407 139 1466 c
536 1466 139 1466 536 1466 c
536 1317 536 1466 536 1317 c
319 1317 536 1317 319 1317 c
319 -258 319 1317 319 -258 c
536 -258 319 -258 536 -258 c
536 -407 536 -258 536 -407 c
139 -407 536 -407 139 -407 c
closepath } bind def
/s93 {
436 -407 m
39 -407 436 -407 39 -407 c
39 -258 39 -407 39 -258 c
256 -258 39 -258 256 -258 c
256 1317 256 -258 256 1317 c
39 1317 256 1317 39 1317 c
39 1466 39 1317 39 1466 c
436 1466 39 1466 436 1466 c
436 -407 436 1466 436 -407 c
closepath } bind def
/s101 {
862 342 m
1048 319 862 342 1048 319 c
1018.67 210.33 964.33 126 885 66 c
805.67 6 704.33 -24 581 -24 c
425.67 -24 302.5 23.83 211.5 119.5 c
120.5 215.17 75 349.33 75 522 c
75 700.67 121 839.33 213 938 c
305 1036.67 424.33 1086 571 1086 c
713 1086 829 1037.67 919 941 c
1009 844.33 1054 708.33 1054 533 c
1054 522.33 1053.67 506.33 1053 485 c
261 485 1053 485 261 485 c
267.67 368.33 300.67 279 360 217 c
419.33 155 493.33 124 582 124 c
648 124 704.33 141.33 751 176 c
797.67 210.67 834.67 266 862 342 c
closepath 271 633 m
864 633 271 633 864 633 c
856 722.33 833.33 789.33 796 834 c
738.67 903.33 664.33 938 573 938 c
490.33 938 420.83 910.33 364.5 855 c
308.17 799.67 277 725.67 271 633 c
closepath } bind def
/s102 {
178 0 m
178 922 178 0 178 922 c
19 922 178 922 19 922 c
19 1062 19 922 19 1062 c
178 1062 19 1062 178 1062 c
178 1175 178 1062 178 1175 c
178 1246.33 184.33 1299.33 197 1334 c
214.33 1380.67 244.83 1418.5 288.5 1447.5 c
332.17 1476.5 393.33 1491 472 1491 c
522.67 1491 578.67 1485 640 1473 c
613 1316 640 1473 613 1316 c
575.67 1322.67 540.33 1326 507 1326 c
452.33 1326 413.67 1314.33 391 1291 c
368.33 1267.67 357 1224 357 1160 c
357 1062 357 1160 357 1062 c
564 1062 357 1062 564 1062 c
564 922 564 1062 564 922 c
357 922 564 922 357 922 c
357 0 357 922 357 0 c
178 0 357 0 178 0 c
closepath } bind def
/s109 {
135 0 m
135 1062 135 0 135 1062 c
296 1062 135 1062 296 1062 c
296 913 296 1062 296 913 c
329.33 965 373.67 1006.83 429 1038.5 c
484.33 1070.17 547.33 1086 618 1086 c
696.67 1086 761.17 1069.67 811.5 1037 c
861.83 1004.33 897.33 958.67 918 900 c
1002 1024 1111.33 1086 1246 1086 c
1351.33 1086 1432.33 1056.83 1489 998.5 c
1545.67 940.17 1574 850.33 1574 729 c
1574 0 1574 729 1574 0 c
1395 0 1574 0 1395 0 c
1395 669 1395 0 1395 669 c
1395 741 1389.17 792.83 1377.5 824.5 c
1365.83 856.17 1344.67 881.67 1314 901 c
1283.33 920.33 1247.33 930 1206 930 c
1131.33 930 1069.33 905.17 1020 855.5 c
970.67 805.83 946 726.33 946 617 c
946 0 946 617 946 0 c
766 0 946 0 766 0 c
766 690 766 0 766 690 c
766 770 751.33 830 722 870 c
692.67 910 644.67 930 578 930 c
527.33 930 480.5 916.67 437.5 890 c
394.5 863.33 363.33 824.33 344 773 c
324.67 721.67 315 647.67 315 551 c
315 0 315 551 315 0 c
135 0 315 0 135 0 c
closepath } bind def
/s114 {
133 0 m
133 1062 133 0 133 1062 c
295 1062 133 1062 295 1062 c
295 901 295 1062 295 901 c
336.33 976.33 374.5 1026 409.5 1050 c
444.5 1074 483 1086 525 1086 c
585.67 1086 647.33 1066.67 710 1028 c
648 861 710 1028 648 861 c
604 887 560 900 516 900 c
476.67 900 441.33 888.17 410 864.5 c
378.67 840.83 356.33 808 343 766 c
323 702 313 632 313 556 c
313 0 313 556 313 0 c
133 0 313 0 133 0 c
closepath } bind def
/s115 {
63 317 m
241 345 63 317 241 345 c
251 273.67 278.83 219 324.5 181 c
370.17 143 434 124 516 124 c
598.67 124 660 140.83 700 174.5 c
740 208.17 760 247.67 760 293 c
760 333.67 742.33 365.67 707 389 c
682.33 405 621 425.33 523 450 c
391 483.33 299.5 512.17 248.5 536.5 c
197.5 560.83 158.83 594.5 132.5 637.5 c
106.17 680.5 93 728 93 780 c
93 827.33 103.83 871.17 125.5 911.5 c
147.17 951.83 176.67 985.33 214 1012 c
242 1032.67 280.17 1050.17 328.5 1064.5 c
376.83 1078.83 428.67 1086 484 1086 c
567.33 1086 640.5 1074 703.5 1050 c
766.5 1026 813 993.5 843 952.5 c
873 911.5 893.67 856.67 905 788 c
729 764 905 788 729 764 c
721 818.67 697.83 861.33 659.5 892 c
621.17 922.67 567 938 497 938 c
414.33 938 355.33 924.33 320 897 c
284.67 869.67 267 837.67 267 801 c
267 777.67 274.33 756.67 289 738 c
303.67 718.67 326.67 702.67 358 690 c
376 683.33 429 668 517 644 c
644.33 610 733.17 582.17 783.5 560.5 c
833.83 538.83 873.33 507.33 902 466 c
930.67 424.67 945 373.33 945 312 c
945 252 927.5 195.5 892.5 142.5 c
857.5 89.5 807 48.5 741 19.5 c
675 -9.5 600.33 -24 517 -24 c
379 -24 273.83 4.67 201.5 62 c
129.17 119.33 83 204.33 63 317 c
closepath } bind def
/s117 {
831 0 m
831 156 831 0 831 156 c
748.33 36 636 -24 494 -24 c
431.33 -24 372.83 -12 318.5 12 c
264.17 36 223.83 66.17 197.5 102.5 c
171.17 138.83 152.67 183.33 142 236 c
134.67 271.33 131 327.33 131 404 c
131 1062 131 404 131 1062 c
311 1062 131 1062 311 1062 c
311 473 311 1062 311 473 c
311 379 314.67 315.67 322 283 c
333.33 235.67 357.33 198.5 394 171.5 c
430.67 144.5 476 131 530 131 c
584 131 634.67 144.83 682 172.5 c
729.33 200.17 762.83 237.83 782.5 285.5 c
802.17 333.17 812 402.33 812 493 c
812 1062 812 493 812 1062 c
992 1062 812 1062 992 1062 c
992 0 992 1062 992 0 c
831 0 992 0 831 0 c
closepath } bind def
end
/BuildGlyph {
 exch dup /Metrics get 2 index get 0 setcharwidth
/CharProcs get exch 2 copy known not{pop/.notdef}if get exec fill}bind def
/BuildChar {
1 index /Encoding get exch get
1 index /BuildGlyph get exec
} bind def
currentdict end /MC2_Arial exch definefont pop
%%EndFont
%%BeginFont: /MC3_ArialItalic
12 dict begin
/FontInfo 8 dict dup begin
/ItalicAngle 12 def
/UnderlinePosition -217.00 def
/UnderlineThickness 150.00 def
/StrikeoutPosition 530.00 def
/StrikeoutThickness 102.00 def
/isFixedPitch false def
end readonly def
/FontName /MC3_ArialItalic def
/FontType 3 def
/FontMatrix [1 2048 div 0 0 1 2048 div 0 0] def
/FontBBox [-1059 -665 3359 2043] def
/Encoding 256 array def 0 1 255{Encoding exch/.notdef put}for
Encoding 32/s32 put
Encoding 112/s112 put
/BoundingBoxes 3 dict def
BoundingBoxes begin
/s32 [0 -434 1055 1854] def
/s112 [-21 -434 1625 1854] def
end
/Metrics 3 dict def
 Metrics begin
/s32 569 def
/s112 1139 def
end
/CharProcs 3 dict def
CharProcs begin
/.notdef {} def
/s112 {
-21 -407 m
286 1062 -21 -407 286 1062 c
453 1062 286 1062 453 1062 c
422 914 453 1062 422 914 c
484 978.67 539.5 1023.5 588.5 1048.5 c
637.5 1073.5 689.33 1086 744 1086 c
845.33 1086 929.33 1049.17 996 975.5 c
1062.67 901.83 1096 796.33 1096 659 c
1096 548.33 1077.67 447.5 1041 356.5 c
1004.33 265.5 959.33 192.33 906 137 c
852.67 81.67 798.67 41 744 15 c
689.33 -11 633.33 -24 576 -24 c
448.67 -24 350 40.67 280 170 c
160 -407 280 170 160 -407 c
-21 -407 160 -407 -21 -407 c
closepath 337 434 m
337 354.67 342.67 299.67 354 269 c
370.67 225.67 398 190.67 436 164 c
474 137.33 518 124 568 124 c
672 124 756 182.5 820 299.5 c
884 416.5 916 536 916 658 c
916 748 894.5 817.5 851.5 866.5 c
808.5 915.5 755 940 691 940 c
645 940 602.33 927.83 563 903.5 c
523.67 879.17 487.17 842.83 453.5 794.5 c
419.83 746.17 392 687 370 617 c
348 547 337 486 337 434 c
closepath } bind def
end
/BuildGlyph {
 exch dup /Metrics get 2 index get 0 setcharwidth
/CharProcs get exch 2 copy known not{pop/.notdef}if get exec fill}bind def
/BuildChar {
1 index /Encoding get exch get
1 index /BuildGlyph get exec
} bind def
currentdict end /MC3_ArialItalic exch definefont pop
%%EndFont
%%BeginFont: /MC4_SymbolItalic
12 dict begin
/FontInfo 8 dict dup begin
/ItalicAngle 18 def
/UnderlinePosition -223.00 def
/UnderlineThickness 100.00 def
/StrikeoutPosition 530.00 def
/StrikeoutThickness 102.00 def
/isFixedPitch false def
end readonly def
/FontName /MC4_SymbolItalic def
/FontType 3 def
/FontMatrix [1 2048 div 0 0 1 2048 div 0 0] def
/FontBBox [-1 -450 3094 2059] def
/Encoding 256 array def 0 1 255{Encoding exch/.notdef put}for
Encoding 32/s32 put
/BoundingBoxes 3 dict def
BoundingBoxes begin
/s32 [0 -450 1327 2059] def
/s61554 [0 -450 815 2059] def
end
/Metrics 3 dict def
 Metrics begin
/s32 512 def
/s61554 0 def
end
/CharProcs 3 dict def
CharProcs begin
/.notdef {} def
/s61554 {
325.69 55 m
285.92 -62 325.69 55 285.92 -62 c
229.96 -226.67 176.58 -353.33 125.78 -442 c
-45.22 -442 125.78 -442 -45.22 -442 c
-16.72 -399.33 4.06 -364.67 17.13 -338 c
39.2 -292.67 61.91 -235.67 85.25 -167 c
303.09 474 85.25 -167 303.09 474 c
349.99 612 431.72 725 548.3 813 c
664.64 900.33 788.81 944 920.81 944 c
1071.48 944 1167.8 890 1209.77 782 c
1241.88 698 1239.93 603 1203.91 497 c
1163.35 377.67 1088.97 267.67 980.75 167 c
837.9 35 691.47 -31 541.47 -31 c
487.47 -31 441.19 -23 402.63 -7 c
377.15 4.33 351.5 25 325.69 55 c
closepath 428.33 357 m
397.29 265.67 383.82 202 387.91 166 c
392.01 130 411.48 99.5 446.32 74.5 c
481.16 49.5 526.24 37 581.58 37 c
664.91 37 746.68 69.67 826.88 135 c
907.09 200.33 966.33 289.33 1004.63 402 c
1033.4 486.67 1042.24 565.17 1031.16 637.5 c
1020.07 709.83 992.76 763.33 949.2 798 c
905.65 832.67 853.21 850 791.88 850 c
715.21 850 650.13 820.33 596.63 761 c
563.95 725.67 526.99 647.33 485.77 526 c
428.33 357 485.77 526 428.33 357 c
closepath } bind def
end
/BuildGlyph {
 exch dup /Metrics get 2 index get 0 setcharwidth
/CharProcs get exch 2 copy known not{pop/.notdef}if get exec fill}bind def
/BuildChar {
1 index /Encoding get exch get
1 index /BuildGlyph get exec
} bind def
currentdict end /MC4_SymbolItalic exch definefont pop
%%EndFont
/clipproc{clippath{[{/m cvx}{/l cvx}{/c cvx}{/cp cvx}pathforall}stopped
{cleartomark[pathbbox exch 3 i sub exch 2 i sub/rectpath cvx}if]np}bd
/iclmtx mtx cmtx def/iclpath clipproc xd/clinit{pathproc initclip np iclpath cl np exec}bd
/clmove{pathproc 3 1 roll clippath pathproc 2 i neg 2 i neg tr initclip np exec cl tr np exec}bd
/clrect[gs np iclpath{pathbbox}stopped{0 0 813.6 571.21 }if gr]def
/cloper{mtx cmtx iclmtx smtx exch exec smtx}bd
/cland{{exch cvx exec}cloper}bd
/clcopy{{exch clinit cvx exec}cloper}bd
/cldiff{{exch pathbbox 4 -1 roll clrect 0 get 2 copy gt{exch}if pop 4 1 roll
 3 -1 roll clrect 1 get 2 copy gt{exch}if pop 3 1 roll
 2 -1 roll clrect 2 get 2 copy lt{exch}if pop 2 1 roll
 1 -1 roll clrect 3 get 2 copy lt{exch}if pop 1 1 roll
 exch 3 i sub exch 2 i sub rectpath cvx exec}cloper}bd
/icl{{clinit}cloper}bd
0.24012 0.240004 sc

/initmtx mtx cmtx def
initmtx smtx
[1.0000 0.0000 0.0000 1.0000 0.0000 0.0000 ] concat
 [0.999508 -0 0 -1 0 2380] concat
gs
1611 242 m
2160 242 l
2160 2024 l
1611 2024 l
cp
gs
0.753 0.753 0.753 rgb
eofi
gr
3 sw
0.753 0.753 0.753 rgb
1 sj
1 scap
st
441 2023 m
3255 2023 l
7 sw
0 0 0 rgb
st
697 2023 m
697 2006 l
st
1208 2023 m
1208 2006 l
st
1720 2023 m
1720 2006 l
st
2232 2023 m
2232 2006 l
st
2743 2023 m
2743 2006 l
st
3255 2023 m
3255 2006 l
st
441 2023 m
441 1989 l
st
953 2023 m
953 1989 l
st
1464 2023 m
1464 1989 l
st
1976 2023 m
1976 1989 l
st
2488 2023 m
2488 1989 l
st
2999 2023 m
2999 1989 l
st
441 238 m
3255 238 l
st
697 238 m
697 255 l
st
1208 238 m
1208 255 l
st
1720 238 m
1720 255 l
st
2232 238 m
2232 255 l
st
2743 238 m
2743 255 l
st
3255 238 m
3255 255 l
st
441 238 m
441 272 l
st
953 238 m
953 272 l
st
1464 238 m
1464 272 l
st
1976 238 m
1976 272 l
st
2488 238 m
2488 272 l
st
2999 238 m
2999 272 l
st
441 2023 m
441 238 l
st
441 1726 m
458 1726 l
st
441 1131 m
458 1131 l
st
441 536 m
458 536 l
st
441 2023 m
475 2023 l
st
441 1428 m
475 1428 l
st
441 833 m
475 833 l
st
441 238 m
475 238 l
st
3255 2023 m
3255 238 l
st
3255 1726 m
3238 1726 l
st
3255 1131 m
3238 1131 l
st
3255 536 m
3238 536 l
st
3255 2023 m
3221 2023 l
st
3255 1428 m
3221 1428 l
st
3255 833 m
3221 833 l
st
3255 238 m
3221 238 l
st
gs
gr
gs
gr
gs
1 -1 sc
/MC1_Arial 108 self 411 -2146 m
(0)[59 ] xs
1 -1 sc
gr
gs
gr
gs
gr
gs
1 -1 sc
/MC1_Arial 108 self 923 -2146 m
(2)[59 ] xs
1 -1 sc
gr
gs
gr
gs
gr
gs
1 -1 sc
/MC1_Arial 108 self 1434 -2146 m
(4)[59 ] xs
1 -1 sc
gr
gs
gr
gs
gr
gs
1 -1 sc
/MC1_Arial 108 self 1946 -2146 m
(6)[59 ] xs
1 -1 sc
gr
gs
gr
gs
gr
gs
1 -1 sc
/MC1_Arial 108 self 2458 -2146 m
(8)[59 ] xs
1 -1 sc
gr
gs
gr
gs
gr
gs
1 -1 sc
/MC1_Arial 108 self 2939 -2146 m
(10)[59 59 ] xs
1 -1 sc
gr
gs
gr
gs
gr
gs
1 -1 sc
/MC1_Arial 108 self 343 -2055 m
(0)[59 ] xs
1 -1 sc
gr
gs
gr
gs
gr
gs
1 -1 sc
/MC1_Arial 108 self 223 -1460 m
(200)[59 59 59 ] xs
1 -1 sc
gr
gs
gr
gs
gr
gs
1 -1 sc
/MC1_Arial 108 self 223 -865 m
(400)[59 59 59 ] xs
1 -1 sc
gr
gs
gr
gs
gr
gs
1 -1 sc
/MC1_Arial 108 self 223 -270 m
(600)[59 59 59 ] xs
1 -1 sc
gr
gs
gr
gs
gr
gs
gr
gs
gr
gs
gr
gs
gr
gs
gr
gs
gr
gs
gr
gs
gr
gs
gr
gs
gr
gs
pathproc 441 238 2815 1786 np rectpath
/eocl cland
np exec
441 2015 m
441 2015 m
446 2014 l
451 2013 l
456 2012 l
461 2011 l
467 2010 l
472 2009 l
477 2009 l
482 2008 l
487 2007 l
492 2006 l
497 2006 l
502 2005 l
508 2004 l
513 2003 l
518 2003 l
523 2002 l
528 2001 l
533 2000 l
538 2000 l
543 1999 l
548 1998 l
554 1998 l
559 1997 l
564 1996 l
569 1995 l
574 1995 l
579 1994 l
584 1993 l
589 1993 l
594 1992 l
600 1991 l
605 1990 l
610 1990 l
615 1989 l
620 1988 l
625 1987 l
630 1987 l
635 1986 l
641 1985 l
646 1984 l
651 1983 l
656 1982 l
661 1981 l
666 1981 l
671 1980 l
676 1979 l
681 1978 l
687 1977 l
692 1976 l
697 1975 l
702 1974 l
707 1973 l
712 1972 l
717 1970 l
722 1969 l
728 1968 l
733 1967 l
738 1966 l
743 1964 l
748 1963 l
753 1962 l
758 1960 l
763 1959 l
768 1958 l
774 1956 l
779 1955 l
784 1953 l
789 1952 l
794 1950 l
799 1948 l
804 1947 l
809 1945 l
814 1943 l
820 1941 l
825 1939 l
830 1937 l
835 1936 l
840 1934 l
845 1931 l
850 1929 l
855 1927 l
861 1925 l
866 1923 l
871 1921 l
876 1918 l
881 1916 l
886 1913 l
891 1911 l
896 1908 l
901 1906 l
907 1903 l
912 1900 l
917 1898 l
922 1895 l
927 1892 l
932 1889 l
937 1886 l
942 1883 l
948 1880 l
953 1876 l
958 1873 l
963 1870 l
968 1866 l
973 1863 l
978 1859 l
983 1856 l
988 1852 l
994 1848 l
999 1845 l
1004 1840 l
1009 1836 l
1014 1832 l
1019 1828 l
1024 1824 l
1029 1820 l
1034 1816 l
1040 1811 l
1045 1807 l
1050 1802 l
1055 1797 l
1060 1793 l
1065 1788 l
1070 1783 l
1075 1778 l
1081 1773 l
1086 1768 l
1091 1763 l
1096 1757 l
1101 1752 l
1106 1746 l
1111 1740 l
1116 1735 l
1121 1729 l
1127 1723 l
1132 1717 l
1137 1711 l
1142 1705 l
1147 1698 l
1152 1692 l
1157 1686 l
1162 1679 l
1168 1673 l
1173 1666 l
1178 1659 l
1183 1652 l
1188 1645 l
1193 1637 l
1198 1630 l
1203 1623 l
1208 1616 l
1214 1608 l
1219 1600 l
1224 1592 l
1229 1584 l
1234 1576 l
1239 1568 l
1244 1560 l
1249 1552 l
1255 1544 l
1260 1535 l
1265 1526 l
1270 1517 l
1275 1508 l
1280 1499 l
1285 1490 l
1290 1481 l
1295 1472 l
1301 1462 l
1306 1452 l
1311 1442 l
1316 1432 l
1321 1422 l
1326 1412 l
1331 1402 l
1336 1392 l
1341 1382 l
1347 1371 l
1352 1360 l
1357 1349 l
1362 1337 l
1367 1326 l
1372 1315 l
1377 1303 l
1382 1292 l
1388 1281 l
1393 1269 l
1398 1258 l
1403 1245 l
1408 1233 l
1413 1221 l
1418 1208 l
1423 1196 l
1428 1184 l
1434 1173 l
1439 1162 l
1444 1151 l
1449 1141 l
1454 1131 l
1459 1121 l
1464 1112 l
1469 1103 l
1475 1095 l
1480 1087 l
1485 1079 l
1490 1072 l
1495 1065 l
1500 1058 l
1505 1052 l
1510 1045 l
1515 1040 l
1521 1034 l
1526 1029 l
1531 1025 l
1536 1020 l
1541 1016 l
1546 1012 l
1551 1009 l
1556 1006 l
1561 1003 l
1567 1000 l
1572 998 l
1577 996 l
1582 994 l
1587 992 l
1592 991 l
1597 990 l
1602 989 l
1608 989 l
1613 988 l
1618 988 l
1623 988 l
1628 989 l
1633 990 l
1638 990 l
1643 991 l
1648 993 l
1654 994 l
1659 996 l
1664 998 l
1669 1000 l
1674 1002 l
1679 1004 l
1684 1007 l
1689 1010 l
1695 1013 l
1700 1016 l
1705 1019 l
1710 1023 l
1715 1026 l
1720 1030 l
1725 1034 l
1730 1038 l
1735 1042 l
1741 1046 l
1746 1050 l
1751 1055 l
1756 1059 l
1761 1064 l
1766 1068 l
1771 1073 l
1776 1078 l
1781 1083 l
1787 1088 l
1792 1093 l
1797 1098 l
1802 1103 l
1807 1109 l
1812 1114 l
1817 1119 l
1822 1125 l
1828 1130 l
1833 1136 l
1838 1141 l
1843 1147 l
1848 1152 l
1853 1158 l
1858 1163 l
1863 1169 l
1868 1174 l
1874 1180 l
1879 1185 l
1884 1191 l
1889 1196 l
1894 1202 l
1899 1207 l
1904 1213 l
1909 1218 l
1915 1223 l
1920 1229 l
1925 1234 l
1930 1239 l
1935 1244 l
1940 1249 l
1945 1254 l
1950 1259 l
1955 1264 l
1961 1269 l
1966 1274 l
1971 1278 l
1976 1283 l
1981 1287 l
1986 1292 l
1991 1296 l
1996 1300 l
2001 1304 l
2007 1308 l
2012 1312 l
2017 1316 l
2022 1320 l
2027 1323 l
2032 1327 l
2037 1330 l
2042 1333 l
2048 1336 l
2053 1339 l
2058 1342 l
2063 1344 l
2068 1347 l
2073 1349 l
2078 1352 l
2083 1354 l
2088 1356 l
2094 1358 l
2099 1359 l
2104 1361 l
2109 1362 l
2114 1363 l
2119 1364 l
2124 1365 l
2129 1366 l
2135 1367 l
2140 1367 l
2145 1368 l
2150 1368 l
2155 1368 l
2160 1368 l
2165 1367 l
2170 1367 l
2175 1366 l
2181 1366 l
2186 1365 l
2191 1364 l
2196 1362 l
2201 1361 l
2206 1360 l
2211 1358 l
2216 1356 l
2221 1354 l
2227 1352 l
2232 1350 l
2237 1347 l
2242 1345 l
2247 1342 l
2252 1339 l
2257 1336 l
2262 1333 l
2268 1330 l
2273 1326 l
2278 1323 l
2283 1319 l
2288 1315 l
2293 1311 l
2298 1307 l
2303 1303 l
2308 1299 l
2314 1294 l
2319 1290 l
2324 1285 l
2329 1281 l
2334 1276 l
2339 1271 l
2344 1266 l
2349 1261 l
2355 1256 l
2360 1251 l
2365 1245 l
2370 1240 l
2375 1235 l
2380 1229 l
2385 1224 l
2390 1218 l
2395 1213 l
2401 1207 l
2406 1201 l
2411 1196 l
2416 1190 l
2421 1185 l
2426 1179 l
2431 1173 l
2436 1168 l
2441 1162 l
2447 1157 l
2452 1151 l
2457 1146 l
2462 1140 l
2467 1135 l
2472 1130 l
2477 1124 l
2482 1119 l
2488 1114 l
2493 1109 l
2498 1104 l
2503 1098 l
2508 1093 l
2513 1088 l
2518 1082 l
2523 1077 l
2528 1072 l
2534 1066 l
2539 1061 l
2544 1056 l
2549 1051 l
2554 1045 l
2559 1040 l
2564 1035 l
2569 1029 l
2575 1024 l
2580 1019 l
2585 1013 l
2590 1008 l
2595 1002 l
2600 997 l
2605 992 l
2610 986 l
2615 981 l
2621 976 l
2626 970 l
2631 965 l
2636 960 l
2641 954 l
2646 949 l
2651 943 l
2656 938 l
2662 933 l
2667 927 l
2672 922 l
2677 916 l
2682 911 l
2687 906 l
2692 900 l
2697 895 l
2702 889 l
2708 884 l
2713 878 l
2718 873 l
2723 868 l
2728 862 l
2733 857 l
2738 851 l
2743 846 l
2748 840 l
2754 835 l
2759 830 l
2764 824 l
2769 819 l
2774 813 l
2779 808 l
2784 802 l
2789 797 l
2795 791 l
2800 786 l
2805 780 l
2810 775 l
2815 769 l
2820 764 l
2825 758 l
2830 753 l
2835 747 l
2841 742 l
2846 736 l
2851 731 l
2856 725 l
2861 720 l
2866 714 l
2871 709 l
2876 703 l
2882 698 l
2887 692 l
2892 686 l
2897 681 l
2902 675 l
2907 670 l
2912 664 l
2917 659 l
2922 653 l
2928 648 l
2933 642 l
2938 636 l
2943 631 l
2948 625 l
2953 620 l
2958 614 l
2963 609 l
2968 603 l
2974 597 l
2979 592 l
2984 586 l
2989 581 l
2994 575 l
2999 569 l
3004 564 l
3009 558 l
3015 553 l
3020 547 l
3025 541 l
3030 536 l
3035 530 l
3040 524 l
3045 519 l
3050 513 l
3055 508 l
3061 502 l
3066 496 l
3071 491 l
3076 485 l
3081 479 l
3086 474 l
3091 468 l
3096 462 l
3102 457 l
3107 451 l
3112 445 l
3117 440 l
3122 434 l
3127 428 l
3132 423 l
3137 417 l
3142 411 l
3148 406 l
3153 400 l
3158 394 l
3163 388 l
3168 383 l
3173 377 l
3178 371 l
3183 366 l
3188 360 l
3194 354 l
3199 348 l
3204 343 l
3209 337 l
3214 331 l
3219 326 l
3224 320 l
3229 314 l
3235 308 l
3240 302 l
3245 297 l
3250 291 l
3255 285 l
3260 279 l
13 sw
1 0 0 rgb
st
gr
gs
pathproc 441 238 2815 1786 np rectpath
/eocl cland
np exec
gr
gs
pathproc 441 238 2815 1786 np rectpath
/eocl cland
np exec
gr
gs
pathproc 441 238 2815 1786 np rectpath
/eocl cland
np exec
gr
gs
pathproc 441 238 2815 1786 np rectpath
/eocl cland
np exec
441 2015 m
459 2011 l
13 sw
st
491 2006 m
509 2004 l
st
540 2000 m
558 1997 l
st
590 1993 m
608 1990 l
st
639 1985 m
657 1982 l
st
689 1977 m
707 1973 l
st
738 1966 m
755 1961 l
st
787 1952 m
804 1947 l
st
836 1936 m
853 1928 l
st
882 1915 m
898 1907 l
st
926 1893 m
941 1884 l
st
967 1867 m
982 1857 l
st
1008 1837 m
1022 1826 l
st
1046 1806 m
1060 1793 l
st
1083 1771 m
1096 1757 l
st
1118 1732 m
1131 1718 l
st
1151 1693 m
1162 1679 l
st
1182 1653 m
1192 1638 l
st
1211 1612 m
1221 1596 l
st
1238 1569 m
1248 1554 l
st
1266 1525 m
1274 1510 l
st
1290 1481 m
1299 1466 l
st
1313 1437 m
1321 1421 l
st
1336 1392 m
1344 1376 l
st
1358 1346 m
1365 1330 l
st
1378 1301 m
1386 1285 l
st
1399 1255 m
1406 1238 l
st
1418 1208 m
1425 1192 l
st
1439 1162 m
1457 1162 l
st
1489 1161 m
1507 1161 l
st
1539 1160 m
1557 1159 l
st
1589 1159 m
1607 1158 l
st
1639 1158 m
1657 1157 l
st
1689 1157 m
1707 1156 l
st
1739 1156 m
1757 1155 l
st
1789 1154 m
1807 1154 l
st
1839 1153 m
1857 1153 l
st
1889 1152 m
1907 1152 l
st
1939 1151 m
1957 1151 l
st
1989 1150 m
2007 1150 l
st
2039 1149 m
2057 1149 l
st
2089 1148 m
2107 1148 l
st
2139 1147 m
2157 1147 l
st
2189 1146 m
2207 1145 l
st
2238 1145 m
2256 1144 l
st
2288 1144 m
2306 1143 l
st
2338 1143 m
2356 1142 l
st
2388 1142 m
2406 1141 l
st
2438 1141 m
2456 1140 l
st
2478 1123 m
2491 1111 l
st
2513 1088 m
2525 1075 l
st
2548 1052 m
2560 1039 l
st
2583 1015 m
2595 1002 l
st
2619 978 m
2631 965 l
st
2652 942 m
2665 929 l
st
2687 906 m
2699 892 l
st
2721 870 m
2732 858 l
st
2755 834 m
2767 821 l
st
2788 798 m
2802 784 l
st
2824 759 m
2837 745 l
st
2858 723 m
2870 710 l
st
2892 686 m
2903 674 l
st
2926 650 m
2938 636 l
st
2959 613 m
2971 600 l
st
2994 575 m
3006 561 l
st
3027 539 m
3039 525 l
st
3061 502 m
3073 488 l
st
3095 463 m
3108 450 l
st
3128 427 m
3140 413 l
st
3162 389 m
3174 376 l
st
3196 351 m
3209 337 l
st
3230 313 m
3242 300 l
st
gr
gs
pathproc 441 238 2815 1786 np rectpath
/eocl cland
np exec
gr
gs
gs
1 -1 sc
162 -1888 tr
90 ro
/MC2_Arial 150 self 0 0 m
(Pressure )[99 49 82 74 74 82 49 82 41 ] xs
1 -1 sc
gr
gs
1 -1 sc
162 -1247 tr
90 ro
/MC3_ArialItalic 150 self 0 0 m
(p)[82 ] xs
1 -1 sc
gr
gs
1 -1 sc
162 -1164 tr
90 ro
/MC2_Arial 150 self 0 0 m
( [MeV/fm)[41 41 124 82 99 41 41 124 ] xs
1 -1 sc
gr
gs
1 -1 sc
88 -563 tr
90 ro
/MC2_Arial 90 self 0 0 m
(3)[49 ] xs
1 -1 sc
gr
gs
1 -1 sc
162 -513 tr
90 ro
/MC2_Arial 150 self 0 0 m
(])[41 ] xs
1 -1 sc
gr
gr
gs
gs
gs
549 391 m
827 391 l
13 sw
1 0 0 rgb
st
gr
gr
1 -1 sc
/MC1_Arial 125 self 827 -434 m
( Spinodal)[34 82 69 27 69 69 69 69 27 ] xs
1 -1 sc
gs
gs
549 544 m
567 544 l
13 sw
st
599 544 m
617 544 l
st
649 544 m
667 544 l
st
699 544 m
717 544 l
st
749 544 m
767 544 l
st
799 544 m
817 544 l
st
gr
gr
1 -1 sc
827 -587 m
( Maxwell)[34 103 69 60 88 69 27 27 ] xs
1 -1 sc
gr
gs
gs
1 -1 sc
3394 -1142 tr
90 ro
/MC2_Arial 91 self 0 0 m
( )[24 ] xs
1 -1 sc
gr
gr
gs
1 -1 sc
/MC1_Arial 91 self 1836 -164 m
( )[24 ] xs
1 -1 sc
gr
gs
1 -1 sc
/MC1_Arial 91 self 1836 -2303 m
( )[24 ] xs
1 -1 sc
gr
gs
1 -1 sc
/MC1_Arial 150 self 1421 -2311 m
(Density )[107 82 82 74 32 41 72 41 ] xs
1 -1 sc
1 -1 sc
/MC4_SymbolItalic 150 self 1960 -2311 m
/s61554 81 xgls
1 -1 sc
1 -1 sc
/MC1_Arial 150 self 2042 -2311 m
( [)[41 41 ] xs
1 -1 sc
1 -1 sc
/MC4_SymbolItalic 150 self 2126 -2311 m
/s61554 81 xgls
1 -1 sc
1 -1 sc
/MC1_Arial 90 self 2208 -2364 m
(0)[49 ] xs
1 -1 sc
1 -1 sc
/MC1_Arial 150 self 2258 -2311 m
(])[41 ] xs
1 -1 sc
gr
gs
1 -1 sc
/MC1_Arial 129 self 2398 -1872 m
(T = 100 MeV)[77 35 74 35 71 71 71 35 106 71 85 ] xs
1 -1 sc
gr
gs
1 -1 sc
/MC1_Arial 71 self 1632 -596 m
(Unstable region )[50 38 35 19 38 38 15 38 19 23 38 38 15 38 38 19 ] xs
1 -1 sc
1 -1 sc
/MC1_Arial 102 self 1632 -803 m
(c)[50 ] xs
1 -1 sc
1 -1 sc
/MC1_Arial 62 self 1683 -768 m
(2)[33 ] xs
1 -1 sc
1 -1 sc
1683 -828 m
(s)[30 ] xs
1 -1 sc
1 -1 sc
/MC1_Arial 102 self 1717 -803 m
(<0)[59 56 ] xs
1 -1 sc
gr
gr
Save0 restore end
showpage
%%EOF
